R4DSA_tidymodels - Hands-on Ex1 - TidyModels
…
We can see that the average scores for females are higher than males. On the other hand, female’s standard deviation is lower than males. Let’s investigate further - in the next section, we will seek to find out if the average scores of females are higher than males using approporiate statistical methods.

Specify Variables

In the code chunk below, specify()from infer package allows us to specify the variables that we will need for the statistical test. Do note that the base file exam needs to be in a tibble data frame. The formula must be specified such that the response variable (qualitative data) is on the left and explanatory (categorical data) on the right.

exam %>%
  specify(formula = MATHS~GENDER)

Response: MATHS (numeric)
Explanatory: GENDER (factor)
# A tibble: 322 × 2
   MATHS GENDER
   <dbl> <fct> 
 1     9 Male  
 2    22 Female
 3    16 Male  
 4    77 Male  
 5    11 Male  
 6    16 Female
 7    21 Male  
 8    18 Male  
 9    19 Male  
10    49 Male  
# … with 312 more rows

Hypothesis

In the code chunk below, we will be using hypothesise()from the infer package. We will test for independent test.

exam %>%
  specify(formula = MATHS ~ GENDER) %>%
  hypothesise(null = "independence")

Response: MATHS (numeric)
Explanatory: GENDER (factor)
Null Hypothesis: independence
# A tibble: 322 × 2
   MATHS GENDER
   <dbl> <fct> 
 1     9 Male  
 2    22 Female
 3    16 Male  
 4    77 Male  
 5    11 Male  
 6    16 Female
 7    21 Male  
 8    18 Male  
 9    19 Male  
10    49 Male  
# … with 312 more rows
…
set.seed(1234)
null_distribution_maths <- exam %>%
  specify(formula = MATHS ~ GENDER ) %>%
  hypothesise(null = "independence") %>%
  generate(reps = 1000, type = "permute") %>%
  calculate(stat = "diff in means",
            order = c("Female","Male")) 

null_distribution_maths

Response: MATHS (numeric)
Explanatory: GENDER (factor)
Null Hypothesis: independence
# A tibble: 1,000 × 2
   replicate   stat
       <int>  <dbl>
 1         1 -6.12 
 2         2  3.12 
 3         3 -4.13 
 4         4 -6.67 
 5         5  1.46 
 6         6 -1.35 
 7         7  0.467
 8         8  1.64 
 9         9 -1.99 
10        10  1.64 
# … with 990 more rows
…
